{
  "$schema": "https://schema.management.azure.com/schemas/2015-01-01/deploymentParameters.json#",
  "contentVersion": "1.0.0.0",
  "parameters": {
    "appService_KibikAPI_name": {
      "value": "KibikAPI"
    },
    "appServicePlan_KibikAPIPlan_location": {
      "value": "West Europe"
    },
    "appServicePlan_KibikAPIPlan_name": {
      "value": "KibikAPIPlan"
    },
    "appServicePlan_KibikAPIPlan_resourceGroup": {
      "value": "Kibik"
    },
    "kibikapiStorageAccount": {
      "value": "kibikapi"
    },
    "storageaccount_kibikapi": {
      "value": "kibikapi"
    },
    "dbserver_kibiksqlserver_name": {
      "value": "kibiksqlserver"
    },
    "dbserver_kibiksqlserver_adminlogin": {
      "value": null
    },
    "dbserver_kibiksqlserver_adminpassword": {
      "value": null
    },
    "dbserver_kibiksqlserver_location": {
      "value": "West Europe"
    },
    "dbserver_kibiksqlserver_KibikDatabase_name": {
      "value": "KibikDatabase"
    },
    "dbserver_kibiksqlserver_KibikDatabase_location": {
      "value": "West Europe"
    },
    "kibikapiStorageAccount_location": {
      "value": "Central US"
    },
    "kibikapiStorageAccountType": {
      "value": "Standard_LRS"
    },
    "appServicePlan_KibikAPIPlan_skuName": {
      "value": "Y1"
    },
    "appServicePlan_KibikAPIPlan_skuTier": {
      "value": "Dynamic"
    },
    "appServicePlan_KibikAPIPlan_skuFamily": {
      "value": "Y1"
    },
    "appServicePlan_KibikAPIPlan_skuSize": {
      "value": "Y"
    },
    "appServicePlan_KibikAPIPlan_workerSizeId": {
      "value": 0
    }
  }
}