{
  "IsEncrypted": false,
  "Values": {
    "AzureWebJobsStorage": "DefaultEndpointsProtocol=https;AccountName=kibikapi;AccountKey=/yRVlPDwIW80PwBummceSJWpA66HoLbVo6g94NEFw6fIdW7RMc5+2u38TBRJbg0J+w1HlgVUMDmTUG9YJsy+4w==;BlobEndpoint=https://kibikapi.blob.core.windows.net/;TableEndpoint=https://kibikapi.table.core.windows.net/;QueueEndpoint=https://kibikapi.queue.core.windows.net/;FileEndpoint=https://kibikapi.file.core.windows.net/",
    "FUNCTIONS_WORKER_RUNTIME": "dotnet",
    "AzureSignalRConnectionString": "Endpoint=https://kibik.service.signalr.net;AccessKey=XtazWhkStcjn1Q9jHYrZTR96s6Y/GCi9hpu2MC3IJ4g=;Version=1.0;"
  },
  "Host": {
    "CORS": "*"
  },
  "ConnectionStrings": {
    //"KibikDb": "Server=.;Database=KibikDatabase;Trusted_Connection=True;Application Name=Kibik.API;",
    "KibikDb": "Server=tcp:kibiksqlserver.database.windows.net,1433;Initial Catalog=KibikDatabase;Persist Security Info=False;User ID=kibik;Password=K1b1kDatabase;MultipleActiveResultSets=False;Encrypt=True;TrustServerCertificate=False;Connection Timeout=30;"
  }
}